…
members_payments_df <- members_df %>% 
  left_join(payments_df, by = c("id" = "member_id")) %>% 
  filter(!is.na(name)) %>%
  group_by(name) %>% 
  summarise(total_payment = sum(value)) %>% 
  arrange(desc(total_payment))

#print result
members_payments_df
```

```
## # A tibble: 660 × 2
##    name             total_payment
##    <chr>                    <dbl>
##  1 Theresa May           2809765.
##  2 Sir Geoffrey Cox      2191387.
##  3 Boris Johnson         1282402 
##  4 Keir Starmer           799936.
##  5 Andrew Mitchell        769373.
##  6 Fiona Bruce            712321.
##  7 John Redwood           692438.
##  8 Rishi Sunak            546043 
##  9 Liz Truss              538678.
## 10 Ed Davey               441681.
## # ℹ 650 more rows
```
…
members_payments_df <- members_df %>% 
  left_join(payments_df, by = c("id" = "member_id")) %>% 
  filter(!is.na(entity)) %>%
  group_by(entity) %>% 
  summarise(total_payment = sum(value)) %>% 
  filter((total_payment / sum(total_payment))*100 > 5)

members_df %>% 
  left_join(payments_df, by = c("id" = "member_id")) %>% 
  select(entity, name) %>% 
  filter(entity == "Withers LLP")
```

```
## # A tibble: 24 × 2
##    entity      name            
##    <chr>       <chr>           
##  1 Withers LLP Sir Geoffrey Cox
##  2 Withers LLP Sir Geoffrey Cox
##  3 Withers LLP Sir Geoffrey Cox
##  4 Withers LLP Sir Geoffrey Cox
##  5 Withers LLP Sir Geoffrey Cox
##  6 Withers LLP Sir Geoffrey Cox
##  7 Withers LLP Sir Geoffrey Cox
##  8 Withers LLP Sir Geoffrey Cox
##  9 Withers LLP Sir Geoffrey Cox
## 10 Withers LLP Sir Geoffrey Cox
## # ℹ 14 more rows
```
…
